Sungil_Park - R basics
…
$경상자수
[1] 728

$부상신고자수
[1] 52

b. 사망사고가 가장 많이 발생한 날짜는 몇월 몇일인가

acc_death %>% group_by(yyyymmdd) %>% 
  summarize(death_count = n()) %>% 
  arrange(desc(death_count))

# A tibble: 365 × 2
   yyyymmdd death_count
      <dbl>       <int>
 1 20211125          19
 2 20211027          17
 3 20211028          17
 4 20211101          17
 5 20211014          16
 6 20211103          16
 7 20210121          15
 8 20210610          15
 9 20211029          15
10 20211209          15
# … with 355 more rows
…
c. 화물차가 일으킨 사고의 시간대별 사고건수를 계산하시오

acc_death %>% 
  filter(가해자_당사자종별=="화물차") %>% 
  group_by(hhmm) %>% 
  summarize(건수= n()) %>% 
  arrange(desc(건수))

# A tibble: 24 × 2
    hhmm  건수
   <dbl> <int>
 1  1100    50
 2  1200    42
 3  1500    42
 4  1400    41
 5  1800    41
 6   600    38
 7  1000    38
 8  1300    38
 9   800    35
10  1700    34
# … with 14 more rows
…
